<svg xmlns="http://www.w3.org/2000/svg" xmlns:xlink="http://www.w3.org/1999/xlink" width="1000.259" height="1016.565" viewBox="0 0 1000.259 1016.565">
  <defs>
    <linearGradient id="linear-gradient" x1="0.5" y1="1" x2="0.5" gradientUnits="objectBoundingBox">
      <stop offset="0" stop-color="gray" stop-opacity="0.251"/>
      <stop offset="0.54" stop-color="gray" stop-opacity="0.122"/>
      <stop offset="1" stop-color="gray" stop-opacity="0.102"/>
    </linearGradient>
  </defs>
  <g id="background-image" transform="translate(-841.802 8.172)">
    <path id="Path_242" data-name="Path 242" d="M671.909-142.906h328.35v1015.5H3L0,655.873C0,293.644,309.681-142.906,671.909-142.906Z" transform="translate(841.802 134.735)" fill="#fff"/>
    <g id="Group_11" data-name="Group 11" transform="translate(950.571 704.164)">
      <g id="Group_8" data-name="Group 8" transform="translate(100 0)">
        <g id="undraw_wallet_aym5" transform="translate(471.455 60.923)">
          <path id="Path_58" data-name="Path 58" d="M821.281,650.97c0,2.122-12.369,8.308-27.061,8.308s-26.14-6.186-26.14-8.308,11.908-1.439,26.615-1.439S821.281,648.844,821.281,650.97Z" transform="translate(-546.665 -458.374)" fill="#504f60"/>
          <path id="Path_59" data-name="Path 59" d="M821.281,653.72c0,2.122-12.369,8.308-27.061,8.308s-26.14-6.186-26.14-8.308" transform="translate(-546.665 -461.124)" opacity="0.2"/>
          <path id="Path_60" data-name="Path 60" d="M502.785,535.422a16.422,16.422,0,0,0,7.143-.241c.36-.111.755-.36.719-.719a.871.871,0,0,0-.162-.36,22.217,22.217,0,0,1-2.158-4.111.36.36,0,0,0-.133-.187.338.338,0,0,0-.23,0c-1.054.277-1.964.957-3.01,1.248a4.287,4.287,0,0,1-1.64.122c-.475-.054-1.122-.446-1.554-.4C502,532.35,502.6,533.818,502.785,535.422Z" transform="translate(-376.13 -381.763)" fill="#dd4f05"/>
          <path id="Path_61" data-name="Path 61" d="M625.338,519.867a12.484,12.484,0,0,0,4.129-3.877.674.674,0,0,0,.111-.334.692.692,0,0,0-.133-.324,13.367,13.367,0,0,0-3.356-3.622,9.786,9.786,0,0,0-1.87,1.726c-.4.417-1.489,1.079-1.5,1.716,0,.36.417.777.611,1.079.263.388.511.784.748,1.187A14.075,14.075,0,0,1,625.338,519.867Z" transform="translate(-453.585 -370.19)" fill="#dd4f05"/>
          <path id="Path_62" data-name="Path 62" d="M487.213,544.808a1.6,1.6,0,0,1-.288,1.043,1.412,1.412,0,0,1-.6.36c-3.334,1.194-7.193-.295-10.52.881-.683.241-1.331.59-2.018.82a10.981,10.981,0,0,1-2.518.446c-1.176.111-2.359.183-3.539.216a8.506,8.506,0,0,1-2.669-.234,3.2,3.2,0,0,1-2.046-1.622,1.557,1.557,0,0,1-.1-1.154,1.246,1.246,0,0,1,.219-.36,3.161,3.161,0,0,1,.784-.637l1.227-.791A8.225,8.225,0,0,1,467,542.79c.486-.158,1-.226,1.492-.36a10.132,10.132,0,0,0,4.262-3.183l1.669-1.78A1.678,1.678,0,0,1,475,537a1.6,1.6,0,0,1,.719-.068,9.619,9.619,0,0,1,4.55,1.525,5.892,5.892,0,0,0,1.122.662,4.006,4.006,0,0,0,3.136-.388c.428-.23.334-.359.514-.77s.618-.673,1-.3a1.055,1.055,0,0,1,.237.453,12.755,12.755,0,0,1,.223,3.708,1.637,1.637,0,0,0,.072.576,3.257,3.257,0,0,0,.327.532,1.2,1.2,0,0,1,.068.137A3.658,3.658,0,0,1,487.213,544.808Z" transform="translate(-351.211 -386.333)" fill="#514e7f"/>
          <path id="Path_63" data-name="Path 63" d="M487.213,555.738a1.6,1.6,0,0,1-.288,1.043,1.411,1.411,0,0,1-.6.36c-3.334,1.194-7.193-.295-10.52.881-.683.241-1.331.59-2.018.82a10.968,10.968,0,0,1-2.518.446c-1.176.112-2.359.184-3.539.216a8.515,8.515,0,0,1-2.669-.234,3.205,3.205,0,0,1-2.046-1.622,1.557,1.557,0,0,1-.1-1.154,1.243,1.243,0,0,1,.219-.36c.194.406.335.946.457,1.14a2.333,2.333,0,0,0,1.561,1.126,3.88,3.88,0,0,0,1.439-.183c3.021-.748,6.233-.759,9.135-1.892a21.093,21.093,0,0,1,2.993-1.151,23.544,23.544,0,0,1,3.237-.263c1.7-.137,3.356-.651,5.035-.921A3.656,3.656,0,0,1,487.213,555.738Z" transform="translate(-351.211 -397.264)" fill="#464353"/>
          <path id="Path_64" data-name="Path 64" d="M617.607,523.527a6.063,6.063,0,0,1-1.841,3.28,21.441,21.441,0,0,0-2.579,2.82c-.863,1.32-1.252,2.956-2.374,4.071a6.51,6.51,0,0,1-1.439,1.025,10.042,10.042,0,0,1-1.852.852,13.822,13.822,0,0,1-5.233.284,4.711,4.711,0,0,1-1.662-.32,5,5,0,0,1-.691-.424,3.3,3.3,0,0,1-1.079-1.079,1.079,1.079,0,0,1-.1-.784,1.844,1.844,0,0,1,.5-.762,11.9,11.9,0,0,1,1.266-1.14,7.577,7.577,0,0,0,1.647-1.439,4.655,4.655,0,0,0,.636-1.439,12.751,12.751,0,0,0,.464-2.752,8.725,8.725,0,0,1,.191-1.841c.266-.95.971-1.8.892-2.78a.7.7,0,0,1,.036-.421.585.585,0,0,1,.331-.205,5.868,5.868,0,0,1,1.719-.4,2,2,0,0,1,1.6.626c.245.295.406.719.766.835a1.219,1.219,0,0,0,.547.022,4.58,4.58,0,0,0,2.518-.773,3.14,3.14,0,0,0,1.043-2.291c0-.327-.148-.669.36-.719.381-.05.683.36.878.612a8.52,8.52,0,0,1,1.683,3.064.9.9,0,0,1,.32-.061,1.391,1.391,0,0,1,1.147.586A2.282,2.282,0,0,1,617.607,523.527Z" transform="translate(-438.218 -374.069)" fill="#514e7f"/>
          <path id="Path_65" data-name="Path 65" d="M617.849,529.874a6.064,6.064,0,0,1-1.842,3.28,21.417,21.417,0,0,0-2.579,2.82c-.864,1.32-1.252,2.956-2.374,4.071a6.509,6.509,0,0,1-1.439,1.025,10.035,10.035,0,0,1-1.852.852,13.819,13.819,0,0,1-5.233.284,4.707,4.707,0,0,1-1.662-.32,5,5,0,0,1-.69-.425,3.3,3.3,0,0,1-1.079-1.079,2.635,2.635,0,0,1,1.079-.259c.777.043,1.345.777,2.09,1,1.061.32,2.118-.428,3.194-.683a21.609,21.609,0,0,0,2.133-.36,5.273,5.273,0,0,0,1.579-.957,8.026,8.026,0,0,0,1.687-1.626,10.455,10.455,0,0,0,.989-1.975,28.229,28.229,0,0,1,2-3.827,2.7,2.7,0,0,1,.406-.532,5.7,5.7,0,0,1,.55-.4,4.179,4.179,0,0,0,1.27-2.316,4.074,4.074,0,0,1,.284-.773,1.391,1.391,0,0,1,1.147.586A2.286,2.286,0,0,1,617.849,529.874Z" transform="translate(-438.46 -380.416)" fill="#464353"/>
          <path id="Path_66" data-name="Path 66" d="M439.042,206.177a7.629,7.629,0,0,1,2.158,2.518c.5.985,3.406,8.632,3.237,9.743.946-.953,4.676-1.108,5.632-2.061.4-.4,2.554-2.392,2.877-2.856s2.726-1.439,2.989-1.928c.982-1.759-6.963-8.423-5.945-10.161a.452.452,0,0,0,.083-.273.445.445,0,0,0-.133-.212,11.913,11.913,0,0,0-2.3-1.572,3.645,3.645,0,0,1-1.752-2.086,7.558,7.558,0,0,0-2.032,1.374q-2.187,1.874-4.3,3.823c-.55.511-1.615,1.19-1.87,1.921C437.388,205.192,438.517,205.749,439.042,206.177Z" transform="translate(-335.071 -168.855)" fill="#a1616a"/>
          <path id="Path_67" data-name="Path 67" d="M459.479,214.13a23.4,23.4,0,0,0-3.4,2.784,6.771,6.771,0,0,0-2.158,3.467c-.1.536-.086,1.079-.169,1.622-.36,2.356-2.4,4.082-3.295,6.287a10.909,10.909,0,0,0-.572,2.1,24.867,24.867,0,0,0-.414,4.129c-.022,1.342,1.295,2.266,1.777,3.518a21.477,21.477,0,0,1,.856,3.823,45.321,45.321,0,0,0,2.158,7.085c1.773,4.9,7.521,18.44,9.294,23.342,5.434-1.363,19.9-4.5,24.712-7.37,1.6-.957-11.132-11.75-9.416-12.495a.64.64,0,0,0,.482-.9c-1.716-7.5-7.082-13.667-9.517-20.972-.845-2.536-2.363-4.7-3.514-7.11-1.043-2.183-1.6-4.6-2.849-6.672a4.208,4.208,0,0,0-.91-1.133,5.364,5.364,0,0,0-1-.608C460.827,214.684,460.166,214.479,459.479,214.13Z" transform="translate(-342.646 -179.638)" fill="#514e7f"/>
          <ellipse id="Ellipse_10" data-name="Ellipse 10" cx="8.506" cy="8.506" rx="8.506" ry="8.506" transform="translate(95.753 19.458)" fill="#a1616a"/>
          <path id="Path_68" data-name="Path 68" d="M466.4,205.745a2.852,2.852,0,0,1,3.2-.46,1.545,1.545,0,0,1,.949,1.536l4.219.065a8.47,8.47,0,0,1,2,.183,2.905,2.905,0,0,1,1.669,1.047c.05.068.108.151.194.162a.31.31,0,0,0,.194-.065,3.661,3.661,0,0,1,2.1-.36,11.347,11.347,0,0,1,6.175,2.712,2,2,0,0,1,.719.9c.147.478-.029,1.079.36,1.421,0,3.956,1.36,7.654,2.266,11.509a5.161,5.161,0,0,0,1.277,1.834,7.406,7.406,0,0,1,1.363,2.036c.77,2-.291,4.352.457,6.359a10.9,10.9,0,0,0,1.439,2.284,5.906,5.906,0,0,1,1.23,2.949c.032.482-.029.967,0,1.439a8.713,8.713,0,0,0,.36,1.91q.46,1.741.964,3.478c.547,1.87,1.259,3.888,2.935,4.884-4.046.687-8.312,1.36-12.167-.047a6.307,6.307,0,0,1-1.518-.759c-1.392-.993-2.064-2.69-2.665-4.294a20.269,20.269,0,0,1-1.485-5.542,6.367,6.367,0,0,0-.255-1.8,5.12,5.12,0,0,0-2.388-2.251,11.465,11.465,0,0,1-2.877-2.237,4.47,4.47,0,0,1-1.165-3.359c.072-.593.306-1.165.327-1.762a1.381,1.381,0,0,0-.816-1.439c-2.946-.892-4.352-4.381-5.007-7.388a23.712,23.712,0,0,1-.378-4.712l-.04-3.068a4.051,4.051,0,0,1-1.324-2.91,3.45,3.45,0,0,0-.018-.964,2.66,2.66,0,0,0-.676-1.025A9.144,9.144,0,0,1,466.4,205.745Z" transform="translate(-353.488 -173.785)" fill="#464353"/>
          <path id="Path_69" data-name="Path 69" d="M440.155,229.629a23.518,23.518,0,0,1-.093,2.856c-.083.36-.227.719-.331,1.054a6.186,6.186,0,0,0,.392,4,22.3,22.3,0,0,0,2.047,3.543,5.753,5.753,0,0,1,.655,1.226,6.352,6.352,0,0,1,.252,1.4,43.433,43.433,0,0,0,1,5.654c.4,1.611,4.978,15.386,6.042,16.663a1.356,1.356,0,0,0,.82.557,1.493,1.493,0,0,0,.7-.144l2.158-.827a1.41,1.41,0,0,0,.5-.273,1.289,1.289,0,0,0,.309-.849c.155-1.755-4.431-15.627-5.014-17.286-1.762-5.006-4.107-9.833-5.255-15.016-.32-1.439-.489-3.654-1.543-4.8-.435-.475-.288-.273-.809-.025a5.914,5.914,0,0,0-.763.4A2.5,2.5,0,0,0,440.155,229.629Z" transform="translate(-336.303 -187.944)" fill="#464353"/>
          <path id="Path_70" data-name="Path 70" d="M556.62,320.79" transform="translate(-411.259 -247.937)" fill="#464353"/>
          <path id="Path_71" data-name="Path 71" d="M458.512,234.331c.579,3.061,1.176,6.114,1.77,9.175l8.445-2.212a5.935,5.935,0,0,0-.719-2.518c-.77-1.931-.788-4.082-1.41-6.067-.471-1.511-1.291-2.9-1.734-4.42-.255-.885-.385-1.8-.636-2.694a19.572,19.572,0,0,0-.993-2.572,16.1,16.1,0,0,0-1.842-3.413,5.37,5.37,0,0,0-2.845,1.845,3.984,3.984,0,0,0-.525,1.8c-.148,1.9.539,3.8.313,5.686A16.725,16.725,0,0,0,458.512,234.331Z" transform="translate(-348.11 -183.147)" fill="#dd4f05"/>
          <path id="Path_72" data-name="Path 72" d="M479.855,341.235c.475,1.8-.212,3.69-.773,5.47a42.4,42.4,0,0,0-1.719,8.236,7.124,7.124,0,0,1-.424,2.082c-.266.6-.719,1.108-1.029,1.68a8.436,8.436,0,0,0-.644,5.057c.122,1.133.306,2.262.532,3.377a8.544,8.544,0,0,1,.22,4.118c.669-.147,1.122.719,1.079,1.4a3.732,3.732,0,0,0,.065,2.025c.827.3.835,1.439.809,2.32a19.511,19.511,0,0,0,.576,4.532q1.877,9.028,3.985,18c3.039.942,6.589,1.924,9.488.618a1.9,1.9,0,0,0,1.2-1.208,2.11,2.11,0,0,0-.115-.928l-1.374-5a9.179,9.179,0,0,1-.493-3.7c.133-.924.536-1.921.083-2.737-.155-.281-.4-.5-.579-.766-.719-1.054-.342-2.464-.284-3.741a2.963,2.963,0,0,0-.058-.856,4.274,4.274,0,0,0-.41-.939,14.357,14.357,0,0,1-1.583-7.143,1.766,1.766,0,0,0-.126-.931,3.039,3.039,0,0,1-.234-.381,1.043,1.043,0,0,1,.076-.687,6.3,6.3,0,0,1-1.108-1.079,1.55,1.55,0,0,0,.266-2.424.809.809,0,0,0,.385-1.392c-.176-.122-.41-.176-.536-.36-.194-.266-.036-.637.122-.921l.838-1.514c.626-1.126.766-2.518,1.439-3.6a26.955,26.955,0,0,0,2.215-5.057l2.421-6.679,1.629,1.413a5.148,5.148,0,0,1,1.338,1.525,6.582,6.582,0,0,1,.435,1.827c.6,3.625,2.877,6.769,3.723,10.34a6.809,6.809,0,0,0,.77,2.309,5.026,5.026,0,0,1,.439.662,3.51,3.51,0,0,1,.183,1.1,5.118,5.118,0,0,0,2.158,3.669c.8.55,1.8.928,2.234,1.8a3.35,3.35,0,0,0,.36.766c.388.468,1.226.521,1.392,1.108.094.327-.079.719.1,1.007a.953.953,0,0,0,.4.3l2.341,1.169c2.618,1.309,3.956,4.316,5.888,6.506a14.021,14.021,0,0,1,1.762,2.33c.835,1.493,1.219,3.367,2.629,4.316a3.976,3.976,0,0,1,1.022.759c.442.583.281,1.4.32,2.133s.6,1.608,1.3,1.385a5.118,5.118,0,0,0,0,2.715,13.669,13.669,0,0,0,8.294-3.359,3.273,3.273,0,0,0,1.349-2.266.812.812,0,0,0-.1-.45,1.282,1.282,0,0,0-.529-.4c-2.19-1.187-2.848-3.938-3.956-6.172a53.445,53.445,0,0,0-3.6-5.5c-2.6-3.938-4.381-8.7-8.319-11.3a5.661,5.661,0,0,1-2.309-2.025c-.241-.529-.27-1.133-.46-1.68a1.458,1.458,0,0,0-1.23-1.079,7.54,7.54,0,0,0,.28-2.611,3.292,3.292,0,0,0-.129-1.126,5.486,5.486,0,0,0-.579-1.115,10.7,10.7,0,0,1-1.482-5.755,9.434,9.434,0,0,0-.1-3.1c-.158-.5-.435-.957-.626-1.439a8.988,8.988,0,0,1-.45-2.7l-.216-3.456a17,17,0,0,0-.446-3.417c-.719-2.683-1.439-13.923-3.9-15.189s-6.7,7.384-9.47,7.553a12.333,12.333,0,0,0-3.6.694,17.519,17.519,0,0,0-4.9,3.237l-5.1,4.284A18.781,18.781,0,0,1,479.855,341.235Z" transform="translate(-359.099 -249.338)" fill="#464353"/>
          <path id="Path_73" data-name="Path 73" d="M416.3,165.414A6.412,6.412,0,0,1,421.247,163a11.526,11.526,0,0,1,5.47,1.374,6.755,6.755,0,0,0,1.6.655c.9.183,1.9-.061,2.712.36,1.079.572,1.287,2.029,1.194,3.237s-.32,2.55.324,3.6a8.327,8.327,0,0,1,.622.939,3.106,3.106,0,0,1-.05,2,12.936,12.936,0,0,1-1.032-1.32,1.216,1.216,0,0,0-1.489-.385c-.464.313-.457.881-.482,1.392s-.155,1.122-.637,1.288a1.032,1.032,0,0,1-1.079-.421c-.824-1.007-.493-2.615-1.309-3.629-.464-.575-1.237-.856-1.665-1.46-.338-.475-.424-1.079-.719-1.59s-.982-.885-1.439-.532a1.946,1.946,0,0,0-.385.514,2.212,2.212,0,0,1-2.626.791,4.388,4.388,0,0,0-1.137-.493,1.406,1.406,0,0,0-1.3.719,2.808,2.808,0,0,0-.36,1.5,3.464,3.464,0,0,1-.281,2.061,2.132,2.132,0,0,1-.575.547,1.791,1.791,0,0,1-1.993.205,1.5,1.5,0,0,1-.446-1.4,11.253,11.253,0,0,1,.424-1.475c.316-1.115-.1-2.37.248-3.42A10.92,10.92,0,0,1,416.3,165.414Z" transform="translate(-320.02 -146.895)" fill="#464353"/>
          <path id="Path_74" data-name="Path 74" d="M432.772,212.982a1.308,1.308,0,0,0,.079.781,1.243,1.243,0,0,0,.424.406,8.726,8.726,0,0,0,4.007,1.3,1.218,1.218,0,0,1,.554.144.974.974,0,0,1,.234,1.115,2.9,2.9,0,0,0-.255,1.187c.1.752,1,1.079,1.748,1.19a4.066,4.066,0,0,0,3.043-.593,4.7,4.7,0,0,0,1.255-1.881c2.065-4.744,2.787-9.988,4.877-14.717a3.12,3.12,0,0,0,.313-.985.971.971,0,0,0-.388-.906c-.388-.241-.993-.1-1.255-.482-.129-.191-.115-.45-.23-.651-.241-.428-.874-.36-1.305-.608-.338-.18-.572-.55-.95-.622a1.194,1.194,0,0,0-.982.424,12.646,12.646,0,0,0-2.554,4.3,50.384,50.384,0,0,1-3.654,6.776,3.953,3.953,0,0,0-1.144-2.241c-.644-.129-1.467,1-1.816,1.421A9.046,9.046,0,0,0,432.772,212.982Z" transform="translate(-331.937 -169.089)" fill="#dd4f05"/>
          <path id="Path_75" data-name="Path 75" d="M462.01,200.32a1.723,1.723,0,0,0-1.334.669,3.807,3.807,0,0,0-.558,1.8,15.626,15.626,0,0,1-2.118,5.69" transform="translate(-348.109 -170.795)" opacity="0.1"/>
          <path id="Path_76" data-name="Path 76" d="M467.257,204.31a2.054,2.054,0,0,0-1.744,1.047,5.879,5.879,0,0,0-.439,1.777,9.749,9.749,0,0,1-1.744,3.737" transform="translate(-351.522 -173.35)" opacity="0.1"/>
          <path id="Path_77" data-name="Path 77" d="M353.673,369.785v-4.467a12.4,12.4,0,0,0-12.4-12.4H164.861a12.4,12.4,0,0,0-12.4,12.4v8.236Z" transform="translate(-152.46 -268.511)" fill="#33323d"/>
          <path id="Path_78" data-name="Path 78" d="M323.369,289.331s-.5,31.24,5.035,41.519,7.913,55,7.913,55,58.064,6.006,98.526-7.193,126.558-18.6,126.558-18.6l-14.509-97.789s-71.677-4.6-112.452,14.85S323.369,289.331,323.369,289.331Z" transform="translate(-261.892 -210.159)" fill="#8dd070"/>
          <path id="Path_79" data-name="Path 79" d="M323.369,289.331s-.5,31.24,5.035,41.519,7.913,55,7.913,55,58.064,6.006,98.526-7.193,126.558-18.6,126.558-18.6l-14.509-97.789s-71.677-4.6-112.452,14.85S323.369,289.331,323.369,289.331Z" transform="translate(-261.892 -210.159)" opacity="0.1"/>
          <path id="Path_80" data-name="Path 80" d="M358.484,313.037s-1.816,25.777,2.741,34.013,4.769,45,4.769,45,52.255,2.424,89.426-10.229S570.7,360.965,570.7,360.965l-8.876-79.971s-64.631-.665-102.353,17.145S358.484,313.037,358.484,313.037Z" transform="translate(-284.156 -222.452)" fill="#8dd070"/>
          <ellipse id="Ellipse_11" data-name="Ellipse 11" cx="13.566" cy="29.097" rx="13.566" ry="29.097" transform="translate(154.087 88.661) rotate(-7.1)" opacity="0.1"/>
          <path id="Path_81" data-name="Path 81" d="M471.635,130.66S402,148.283,369.164,179.3,267.2,225.014,267.2,225.014s9.107,29.884,17.53,37.97,24.4,49.921,24.4,49.921,57.1-12.106,91.559-37.1,114.757-56.55,114.757-56.55Z" transform="translate(-225.932 -126.189)" opacity="0.2"/>
          <path id="Path_82" data-name="Path 82" d="M264.29,212.58s9.1,29.888,17.519,37.973,24.4,49.917,24.4,49.917,57.111-12.1,91.57-37.092S512.532,206.84,512.532,206.84l-43.81-88.61s-69.631,17.623-102.468,48.644S264.29,212.58,264.29,212.58Z" transform="translate(-224.069 -118.23)" fill="#8dd070"/>
          <path id="Path_83" data-name="Path 83" d="M264.29,212.58s9.1,29.888,17.519,37.973,24.4,49.917,24.4,49.917,57.111-12.1,91.57-37.092S512.532,206.84,512.532,206.84l-43.81-88.61s-69.631,17.623-102.468,48.644S264.29,212.58,264.29,212.58Z" transform="translate(-224.069 -118.23)" opacity="0.1"/>
          <path id="Path_84" data-name="Path 84" d="M308,234.4s6.183,25.094,13.049,31.532,18.343,41.361,18.343,41.361,50.475-13.732,81.971-37.182,103.327-55.2,103.327-55.2L491.7,141.5s-61.715,19.2-92.153,47.724S308,234.4,308,234.4Z" transform="translate(-252.058 -133.131)" fill="#8dd070"/>
          <ellipse id="Ellipse_12" data-name="Ellipse 12" cx="13.566" cy="29.097" rx="13.566" ry="29.097" transform="translate(131.275 74.963) rotate(-24.97)" opacity="0.1"/>
          <path id="Path_85" data-name="Path 85" d="M358.454,389.729V513.812a10.729,10.729,0,0,1-10.732,10.729H163.215a10.729,10.729,0,0,1-10.725-10.729V377.22c5.287,1.964,5.287,1.964,10.725,1.8H347.722A10.732,10.732,0,0,1,358.454,389.729Z" transform="translate(-152.479 -284.071)" opacity="0.1"/>
          <path id="Path_86" data-name="Path 86" d="M358.454,394.113V518.2a10.732,10.732,0,0,1-10.732,10.729H163.215A10.729,10.729,0,0,1,152.49,518.2V381.6c5.287,1.96,5.287,1.96,10.725,1.8H347.722A10.732,10.732,0,0,1,358.454,394.113Z" transform="translate(-152.479 -286.876)" fill="#504f60"/>
          <path id="Path_87" data-name="Path 87" d="M619.846,543.937v39.681H581.362a19.842,19.842,0,1,1,0-39.683Z" transform="translate(-414.397 -390.825)" opacity="0.1"/>
          <path id="Path_88" data-name="Path 88" d="M621.306,541v39.689H582.823a19.842,19.842,0,1,1,0-39.683Z" transform="translate(-415.331 -388.946)" fill="#33323d"/>
          <ellipse id="Ellipse_13" data-name="Ellipse 13" cx="7.736" cy="7.736" rx="7.736" ry="7.736" transform="translate(161.6 165.218)" opacity="0.1"/>
          <ellipse id="Ellipse_14" data-name="Ellipse 14" cx="7.736" cy="7.736" rx="7.736" ry="7.736" transform="translate(162.125 164.168)" fill="#dd4f05"/>
          <path id="Path_89" data-name="Path 89" d="M866.026,530.164c.306,3.313-2.2,6.528-1.471,9.772.158.694.457,1.349.565,2.05.3,1.928-.845,3.751-1.943,5.362l-9.423,13.826a8.6,8.6,0,0,1-1.345,1.662c-1.8,1.6-4.5,1.439-6.87,1.917a11.74,11.74,0,0,0-4.6,2.035.3.3,0,0,0-.043.4,3.956,3.956,0,0,0,3.424,1.608c.248.327,0,.806-.36,1.04-.507.36-1.2.446-1.3,1.3a1.412,1.412,0,0,0,.173.863,2.679,2.679,0,0,0,1.647,1.147c3.262,1,6.787-.755,9.229-3.14s4.194-5.395,6.589-7.823c1.327-1.341,2.834-2.492,4.2-3.794a48.087,48.087,0,0,0,6.891-8.916,9.948,9.948,0,0,0,1.493-3.035c.259-1.1.137-2.219.428-3.287a12.114,12.114,0,0,1,2.259-3.694,12.219,12.219,0,0,0,2.568-7.952,7.624,7.624,0,0,0-4.654-6.6,4.137,4.137,0,0,0-2.608-.158,6.2,6.2,0,0,0-2.654,2.111l-1.8,2.068a4.843,4.843,0,0,0-1.043,1.583,1.658,1.658,0,0,0,.36,1.759" transform="translate(-593.251 -378.451)" fill="#fbbebe"/>
          <path id="Path_90" data-name="Path 90" d="M866.026,530.164c.306,3.313-2.2,6.528-1.471,9.772.158.694.457,1.349.565,2.05.3,1.928-.845,3.751-1.943,5.362l-9.423,13.826a8.6,8.6,0,0,1-1.345,1.662c-1.8,1.6-4.5,1.439-6.87,1.917a11.74,11.74,0,0,0-4.6,2.035.3.3,0,0,0-.043.4,3.956,3.956,0,0,0,3.424,1.608c.248.327,0,.806-.36,1.04-.507.36-1.2.446-1.3,1.3a1.412,1.412,0,0,0,.173.863,2.679,2.679,0,0,0,1.647,1.147c3.262,1,6.787-.755,9.229-3.14s4.194-5.395,6.589-7.823c1.327-1.341,2.834-2.492,4.2-3.794a48.087,48.087,0,0,0,6.891-8.916,9.948,9.948,0,0,0,1.493-3.035c.259-1.1.137-2.219.428-3.287a12.114,12.114,0,0,1,2.259-3.694,12.219,12.219,0,0,0,2.568-7.952,7.624,7.624,0,0,0-4.654-6.6,4.137,4.137,0,0,0-2.608-.158,6.2,6.2,0,0,0-2.654,2.111l-1.8,2.068a4.843,4.843,0,0,0-1.043,1.583,1.658,1.658,0,0,0,.36,1.759" transform="translate(-593.251 -378.451)" opacity="0.05"/>
          <path id="Path_91" data-name="Path 91" d="M916.062,770.329a10.91,10.91,0,0,1-7.014,1.04c-.384-.047-.842-.076-1.079.223-.36.432.065,1.079.5,1.414a10.378,10.378,0,0,0,4.816,1.982A31.672,31.672,0,0,0,918,775.3a79.679,79.679,0,0,0,12.879-.471,1.828,1.828,0,0,0,.719-.209,1.318,1.318,0,0,0,.532-.809,3.211,3.211,0,0,0-1.119-3.065,9.392,9.392,0,0,0-3-1.611l-3.741-1.457c-.877-.342-2.284-1.248-3.237-1.176C919.241,766.632,917.547,769.459,916.062,770.329Z" transform="translate(-636.155 -533.341)" fill="#3f3d56"/>
          <path id="Path_92" data-name="Path 92" d="M916.062,770.329a10.91,10.91,0,0,1-7.014,1.04c-.384-.047-.842-.076-1.079.223-.36.432.065,1.079.5,1.414a10.378,10.378,0,0,0,4.816,1.982A31.672,31.672,0,0,0,918,775.3a79.679,79.679,0,0,0,12.879-.471,1.828,1.828,0,0,0,.719-.209,1.318,1.318,0,0,0,.532-.809,3.211,3.211,0,0,0-1.119-3.065,9.392,9.392,0,0,0-3-1.611l-3.741-1.457c-.877-.342-2.284-1.248-3.237-1.176C919.241,766.632,917.547,769.459,916.062,770.329Z" transform="translate(-636.155 -533.341)" opacity="0.05"/>
          <path id="Path_93" data-name="Path 93" d="M932.941,601.3c-1.557,2.072-3.169,4.464-2.784,7.028a15.646,15.646,0,0,0,1.55,3.877,27.373,27.373,0,0,1,1.568,5.453c.583,2.712,1.169,5.431,1.525,8.186.406,3.111-1.5,12.113-1.679,15.246a3.222,3.222,0,0,1-.659,2.115c-.2.216-.478.388-.572.669a1.142,1.142,0,0,0,.126.791,8.7,8.7,0,0,0,4.676,4.294,36.963,36.963,0,0,0,9.017,2.37,1.8,1.8,0,0,0,.849-.111,1.649,1.649,0,0,0,.654-.752c1.564-2.992.061-13.631.083-17.008.022-2.816.687-5.614.565-8.427-.1-2.259-.719-4.467-.924-6.719-.36-3.69.317-7.4,1-11.045.518-2.8,1.039-5.6,1.7-8.359a16.047,16.047,0,0,1,1.8-4.852c.719-1.162,1.73-2.133,2.568-3.237a14.609,14.609,0,0,0,2.877-10.7c-.05-.36-5.395,1.356-5.866,1.561a18.266,18.266,0,0,0-5.229,3.362,43.888,43.888,0,0,0-3.295,4.075q-2.3,2.8-4.539,5.643Q935.394,598.012,932.941,601.3Z" transform="translate(-650.412 -413.965)" fill="#464353"/>
          <path id="Path_94" data-name="Path 94" d="M932.941,600.981c-1.557,2.072-3.169,4.467-2.784,7.028a15.612,15.612,0,0,0,1.55,3.881,27.344,27.344,0,0,1,1.568,5.449c.583,2.716,1.169,5.435,1.525,8.186.406,3.115-1.5,12.114-1.679,15.246a3.233,3.233,0,0,1-.659,2.119c-.2.212-.478.385-.572.665a1.139,1.139,0,0,0,.126.791,8.809,8.809,0,0,0,4.676,4.316,34.741,34.741,0,0,0,9.017,1.687,1.8,1.8,0,0,0,.849-.112,1.624,1.624,0,0,0,.654-.748c1.564-2.992.061-12.948.083-16.328.022-2.82.687-5.614.565-8.431-.1-2.259-.719-4.467-.924-6.715-.36-3.694.317-7.4,1-11.049.518-2.795,1.039-5.593,1.7-8.358a16.047,16.047,0,0,1,1.8-4.852c.719-1.162,1.73-2.133,2.568-3.237a14.6,14.6,0,0,0,2.877-10.7c-.05-.36-5.395,1.356-5.866,1.561a18.357,18.357,0,0,0-5.229,3.366,43.385,43.385,0,0,0-3.295,4.071q-2.3,2.8-4.539,5.647Q935.394,597.69,932.941,600.981Z" transform="translate(-650.412 -413.773)" opacity="0.05"/>
          <ellipse id="Ellipse_15" data-name="Ellipse 15" cx="8.729" cy="8.729" rx="8.729" ry="8.729" transform="translate(256.471 124.249)" fill="#fbbebe"/>
          <path id="Path_95" data-name="Path 95" d="M896.863,483.974a11.3,11.3,0,0,0,7.247,5.057l-.658,2.392c-1.137,4.107-2.413,8.452-5.586,11.3a5.252,5.252,0,0,0-.885-4.086,15.394,15.394,0,0,0-2.964-3.1l-5.024-4.352a1.515,1.515,0,0,1-.36-.424,1.276,1.276,0,0,1,0-.957c.64-1.993,2.467-3.237,3.956-4.582a13.7,13.7,0,0,0,1.989-2.316C895.583,481.478,896.205,482.917,896.863,483.974Z" transform="translate(-623.801 -351.363)" fill="#fbbebe"/>
          <path id="Path_96" data-name="Path 96" d="M853.976,451.09l-.2-1.64c1.378.36,2.687-.813,3.568-2.025s1.7-2.64,3.039-3.147c1.629-.611,3.356.36,4.913,1.18a15.533,15.533,0,0,0,5.636,1.834,3.7,3.7,0,0,1,.931.151c1.014.36,1.5,1.633,1.644,2.787a10.9,10.9,0,0,0,.608,3.41c.36.78,1.029,1.36,1.439,2.129,1.079,2.064.036,4.888,1.162,6.913l-2.8-2.565c-.255-.234-.615-.478-.9-.281-.223.158-.241.5-.331.773a1.469,1.469,0,0,1-1.992.719,5.708,5.708,0,0,1-1.8-1.629,10.914,10.914,0,0,0-4.438-3.367,5.7,5.7,0,0,0-4.676.309c-1.306.737-2.262,2.457-3.863,2.518-2.194.083-3.108-4-4.122-5.618a1.978,1.978,0,0,0,.576-2.474C852.523,451.007,853.943,450.838,853.976,451.09Z" transform="translate(-600.274 -326.888)" fill="#464353"/>
          <path id="Path_97" data-name="Path 97" d="M552.619,317.988a16.965,16.965,0,0,0-1.939,2.036,4.076,4.076,0,0,0-.892,2.615,1.34,1.34,0,0,0,.252.766.648.648,0,0,0,.719.219.966.966,0,0,0,.36-.317A17.384,17.384,0,0,1,552.328,322c.155-.155.36-.317.568-.259a.609.609,0,0,1,.245.162,1.654,1.654,0,0,1,.507.791,1.864,1.864,0,0,1-.557,1.532,3.925,3.925,0,0,0-.939,1.388.615.615,0,0,0,0,.446.669.669,0,0,0,.281.237,4.014,4.014,0,0,0,3.4.223c.719-.291,1.36-.791,2.1-1.05a4.852,4.852,0,0,0,.928-.36,1.928,1.928,0,0,0,.824-1.234,5.085,5.085,0,0,0,.054-1.514,17.4,17.4,0,0,0-1.237-5.693.715.715,0,0,0-.209-.3.666.666,0,0,0-.36-.1c-.921-.1-2.431-.568-3.32-.227a2.347,2.347,0,0,0-.784.7C553.659,316.923,552.619,317.747,552.619,317.988Z" transform="translate(-406.884 -244.818)" fill="#a1616a"/>
          <path id="Path_98" data-name="Path 98" d="M533.859,259.566c0-.878-1.079-3,.636-3.136,0-.939-1.327-1.521-1.079-2.518.079-.331.359-.6.392-.939.108-.96-1.626-1.482-1.338-2.4.108-.36.489-.568.572-.924.194-.831-1.291-1.2-1.32-2.054,0-.288.162-.557.147-.845,0-.36-.313-.633-.485-.946-.45-.8-.23-2.043-1.05-2.457.543.047.719-.759.5-1.252s-.68-.921-.683-1.467a2.213,2.213,0,0,0,0-.6c-.151-.525-1.011-.568-1.154-1.079a4.531,4.531,0,0,1-.018-.59c-.058-.406-.475-.665-.867-.78a3.536,3.536,0,0,1-1.158-.414c-.252-.191-.543-.507-.813-.36-.1.061-.151.176-.227.263-.324.378-.942.212-1.349-.065a5.541,5.541,0,0,1-2.054-3.708c-.255-1.428-.248-2.9-.568-4.316a9.239,9.239,0,0,0-.389-1.295,6.826,6.826,0,0,1-.6-1.288c-.065-.827,1.647-.263,2.3-.18a10.241,10.241,0,0,1,1.867.36,19.944,19.944,0,0,1,1.91.838c2.6,1.147,5.733,1.288,7.819,3.215A6.555,6.555,0,0,0,537,232.383a9.77,9.77,0,0,1,1.208.313c.989.464,1.144,1.777,1.683,2.726a5.338,5.338,0,0,1,.442.791,3.033,3.033,0,0,1,.144,1.007l.076,2.492a91.911,91.911,0,0,1-.2,12.513,10.264,10.264,0,0,0,.047,4.1c.108.36.259.7.36,1.061a6.463,6.463,0,0,1,.137,1.295l.057,1.615a.5.5,0,0,1-.079.36.517.517,0,0,1-.435.1c-2.248-.2-4.521-1.467-6.643-.7" transform="translate(-388.415 -187.209)" fill="#464353"/>
          <ellipse id="Ellipse_16" data-name="Ellipse 16" cx="26.601" cy="3.845" rx="26.601" ry="3.845" transform="translate(221.426 188.751)" fill="#504f60"/>
          <path id="Path_99" data-name="Path 99" d="M758.4,347.868c-.467-2-.759-3.762-.759-3.762a7.753,7.753,0,0,0-.87-3.816v-.547h0v-4.028a13.743,13.743,0,0,1,1.018-2.111c.72-1.266,0-5.906,0-5.906s-2.687-6.542-2.035-10.693-5.517-18.429-5.517-18.429a18.193,18.193,0,0,1,.579-4.079,3.11,3.11,0,0,0,.079-.856v-.072c-.093-2.737-2.259-7.866-2.259-7.866l.292-9.776a28.741,28.741,0,0,0-.871-13.505c-.788-2.7-1.291-4.863-1.611-6.531-.036-.187-.072-.36-.1-.543,4.636-.719,8.179-1.295,8.179-1.295s-2.69-11.254-4.507-13.225-3.269-8.161-3.269-8.161-.946-7.945.583-10.268,1.744-6.33,1.744-6.33,3.485-2.518,3.924-3.658a18.667,18.667,0,0,0,1.161-4.992c0-1.334-.435-2.518-.291-3.237s-1.018-3.377-.435-4.643a3.4,3.4,0,0,0,.23-1.219.147.147,0,0,0,0-.036h0a17.109,17.109,0,0,0-.306-3.3,9.37,9.37,0,0,0-3.453-1.845l-.075-.3-.2-.791a3.788,3.788,0,0,0-.342-.2v-.288l-.032-1.144.547-2.568c1.079-4.467-4.888-5.132-4.888-5.132a3.149,3.149,0,0,0-1.691-1.482c-1.2-.421-.2,6.718.36,7.193a28.142,28.142,0,0,1,2.352,3.683h0l.1.18a2.515,2.515,0,0,0-.273.288l.227,1.55.036.237a6.434,6.434,0,0,0-.953,1.622,3.5,3.5,0,0,1,.874,2.518,8.067,8.067,0,0,0,.36,3.093c-.065-.075-.831-.9-1.6-.7s-2.906.845-2.906.845-1.6.281-1.439.633-1.079,1.9-1.079,1.9l-4.294-4.071c-.043-.122-.09-.245-.126-.36a9.906,9.906,0,0,1-.359-1.8,9.842,9.842,0,0,0,1.374-.435,2.964,2.964,0,0,0,1.187-.762,4.6,4.6,0,0,0,.694-1.852,27.209,27.209,0,0,1,1.593-3.553,11.556,11.556,0,0,0,.809-6.395,4.175,4.175,0,0,0-.658-1.87c-.7-.964-1.975-1.356-2.9-2.126s-1.521-1.946-2.6-2.518a5.157,5.157,0,0,0-3.259-.281,17.563,17.563,0,0,0-6.089,2.216,3.169,3.169,0,0,1-2.036.669,2.659,2.659,0,0,1-1.467-1.079.345.345,0,0,1,.018-.058.361.361,0,0,1-.047-.058,7.587,7.587,0,0,0-.669,3.215,3.945,3.945,0,0,0,.022.514V184h0a.832.832,0,0,1-.032.227,1.635,1.635,0,0,1-.4.579,3.892,3.892,0,0,0-.36.478.6.6,0,0,1,.057-.176,2.557,2.557,0,0,0-.446,1.356,1.386,1.386,0,0,0,.324.971,4.661,4.661,0,0,0,.7.561,8.175,8.175,0,0,0-.13,1.439,8.312,8.312,0,0,0,4.05,7.089c.051.119.1.241.144.36a10.238,10.238,0,0,1,.781,4.676,2.2,2.2,0,0,1-.051.338c-.018.111-.108.119-.154.18h0s-7.1.072-8.765-1.439-4.215,3.694-4.215,3.694-2.543.493-3.054,0-3.485-.068-3.485-.068a6.413,6.413,0,0,0-4.435-1.619,13.025,13.025,0,0,0-3.237-1.8h0l-.079-.029h0a3.626,3.626,0,0,0-1.6-.2,32.278,32.278,0,0,1-4.506-4.431c-1.018-1.554-5.862-7.29-5.884-7.316v-.277l-.054-.834a2.982,2.982,0,0,1-.435.036c-.025-.083-.061-.18-.1-.291a16.079,16.079,0,0,0-1.029-2.363s0-1.054.306-1.32-.126-4.133-.126-4.133-3.143-7.348-5.96-1.863c0,0-5.323,3.55-.856,7.686,0,0,1.8.863,2.036,1.547.165.442.77,1.683,1.176,2.518l.183.36-.05.043.065.691.029.266c-.842.478-1.414.953-1.273,1.309a7.863,7.863,0,0,1,.507,1.9s6.179,7.74,6.977,11.045c0,0,16.569,9.848,22.018,10.549l-.964,4.909a39.205,39.205,0,0,0-.216,4.01c.072,1.054-.655,5.837-.655,5.837s-.946,7.035-1.744,8.02-.655,5.2-.655,5.2a35.533,35.533,0,0,1-1.079,5.978,15.272,15.272,0,0,0-.219,5.981s-2.758,6.33,3.852,2.039c0,0,3.237-.2,6.984-.331v.36c0,.482,0,1-.025,1.55-.05,3.625-.072,8.632.094,12.4.291,6.682,2.327,19.907,2.327,19.907v6.657a9.069,9.069,0,0,0-.194,1.9,12.357,12.357,0,0,0,1.8,6.65l.51,4.431a17.287,17.287,0,0,1,1.216,4.676,2.44,2.44,0,0,1-.05.421,2.843,2.843,0,0,0-.058.68,38.25,38.25,0,0,0,1.144,6.834s.072,4.852.8,5.136c.622.241-.831,2.795-1.263,3.528a1.036,1.036,0,0,1-.025-.136l-.09.144a3.446,3.446,0,0,0-.227,1.23,1.763,1.763,0,0,0,.806,1.7c1.381.845,2.122,1.547.949,1.827a12.217,12.217,0,0,0-1.28.27.556.556,0,0,0-.061-.162.77.77,0,0,0-.478.849,3.6,3.6,0,0,0,.428,1.633,17.8,17.8,0,0,0,1.967,3.6l.557-.061a2.713,2.713,0,0,1-.324.6,2.314,2.314,0,0,1-.82.719,2.539,2.539,0,0,1-1,.342,2.805,2.805,0,0,0-2.057,1c-.719.939-1.18,2.215.252,3.338l5.2,1.8s8.941,1.162,8.467-.845-.762-3.762-.762-3.762a7.931,7.931,0,0,0-.719-3.557,4.634,4.634,0,0,0-.316-.525l.316-.032s.654-4.435,1.525-5.276c.2-.194.248-.36.2-.46.09-.241-.14-.381-.431-.464l-.065.176a4.23,4.23,0,0,0-.867-.1s-.291-2.32.655-3.165a.9.9,0,0,0,.183-.69,3.71,3.71,0,0,0-.1-.946.52.52,0,0,1-.032.057,34.083,34.083,0,0,0-2.086-5.456,6.668,6.668,0,0,1,.511-2.953c.583-.845-.076-11.466-.076-11.466s.22-5.132-.435-7.524.8-5.208.8-5.208v-.187l-.083-.809a.211.211,0,0,0,0,.05c-.147-1.36-.425-3.823-.63-4.96-.291-1.618.076-9.351.076-9.351l1.305-3.309,2.327,5.7,2.471,7.6A6.49,6.49,0,0,1,738,296.976v.237a4.117,4.117,0,0,0-.029.507,4.518,4.518,0,0,0,.752,2.708s.655,3.6,1.673,4.5a4.039,4.039,0,0,1,1.018,2.672,46.677,46.677,0,0,0,1.8,6.114,9.1,9.1,0,0,1,.511,3.535h0v.187s.173,1.863.166,3.424v.557a.174.174,0,0,0,0-.039,5.411,5.411,0,0,1-.151,1.266l-.022.072a.91.91,0,0,1,.025-.263,13.216,13.216,0,0,0-.359,3.237c-.032,1.87.252,4.086,1.385,5.395,1.964,2.251,3.2,1.971,3.2,1.971s-.942,2.813-2.108,3.377a.543.543,0,0,0-.122.079,1.192,1.192,0,0,0-.029-.165,1.371,1.371,0,0,0-.36,1.05,7.545,7.545,0,0,0,1.439,4.169,2.346,2.346,0,0,0,.982.575,1.563,1.563,0,0,1-.184.111,3.844,3.844,0,0,1-.4.191,2.09,2.09,0,0,1-.594.155,2.769,2.769,0,0,0-2.057,1c-.719.935-1.18,2.212.252,3.334l5.2,1.8S758.868,349.871,758.4,347.868Z" transform="translate(-487.489 -155.085)" fill="url(#linear-gradient)"/>
          <path id="Path_100" data-name="Path 100" d="M800.209,645.922l-5.035-1.8c-1.389-1.122-.946-2.4-.245-3.338a2.689,2.689,0,0,1,1.992-1,2.393,2.393,0,0,0,.96-.342,2.3,2.3,0,0,0,.8-.719,3.717,3.717,0,0,0,.572-1.946s5.524-1.618,7.035,0a4.1,4.1,0,0,1,.669.982,8.216,8.216,0,0,1,.719,3.557s.281,1.755.737,3.762S800.209,645.922,800.209,645.922Z" transform="translate(-563.433 -449.816)" fill="#2d293d"/>
          <path id="Path_101" data-name="Path 101" d="M868.649,639.009l-5.036-1.8c-1.388-1.122-.946-2.4-.244-3.334a2.659,2.659,0,0,1,1.989-1,1.864,1.864,0,0,0,.576-.155,3.759,3.759,0,0,0,.388-.191,3.184,3.184,0,0,0,1.37-2.672s5.521-1.619,7.035,0a3.973,3.973,0,0,1,.529.719,7.99,7.99,0,0,1,.842,3.82s.28,1.759.719,3.762S868.649,639.009,868.649,639.009Z" transform="translate(-607.258 -445.385)" fill="#2d293d"/>
          <path id="Path_102" data-name="Path 102" d="M814.163,636.768a4.1,4.1,0,0,1,.669.982h0l-8.272.96a3.716,3.716,0,0,0,.572-1.946S812.652,635.149,814.163,636.768Z" transform="translate(-571.305 -449.808)" opacity="0.1"/>
          <path id="Path_103" data-name="Path 103" d="M881.022,630.6v1.55c-1.287,2.118-7.513,1.655-9.322.593a3.845,3.845,0,0,0,.389-.19,3.184,3.184,0,0,0,1.37-2.672s5.521-1.618,7.035,0A3.994,3.994,0,0,1,881.022,630.6Z" transform="translate(-613.017 -445.398)" opacity="0.1"/>
          <path id="Path_104" data-name="Path 104" d="M825.5,468.179a14.086,14.086,0,0,0-.982,2.111v5.557c-1.41,2.32-8.722,1.547-9.711.281s-2.021-4.561-.91-5.133,2.039-3.377,2.039-3.377-1.2.28-3.1-1.971-1.334-7.244-.982-8.438,0-5.2,0-5.2.072-2.816-.489-3.73a46.427,46.427,0,0,1-1.759-6.114,4.14,4.14,0,0,0-.985-2.672c-.985-.914-1.619-4.5-1.619-4.5a4.615,4.615,0,0,1-.7-3.025,6.144,6.144,0,0,0-1.2-3.658l-2.392-7.6-2.252-5.7-1.266,3.305s-.36,7.736-.068,9.351.719,5.909.719,5.909-1.406,2.813-.773,5.2.4,7.531.4,7.531.633,10.617.068,11.462a6.864,6.864,0,0,0-.493,2.956s2.877,6.186,1.971,7.031-.633,3.165-.633,3.165,1.968,0,1.126.845-1.478,5.276-1.478,5.276l-8.506,1a17.71,17.71,0,0,1-1.9-3.6c-1.126-2.615.209-2.32,1.342-2.6s.417-.982-.921-1.827-.561-2.744-.561-2.744,2.039-3.445,1.334-3.726-.773-5.136-.773-5.136-1.406-5.755-1.054-7.316-1.126-5.273-1.126-5.273l-.493-4.431a12.193,12.193,0,0,1-1.546-8.373v-6.834s-1.971-13.221-2.251-19.9c-.18-4.28-.129-10.121-.072-13.764.036-2.043.072-3.4.072-3.4l30.384-3.165a25.384,25.384,0,0,0,.55,4.514c.313,1.669.8,3.83,1.561,6.531a29.679,29.679,0,0,1,.845,13.5l-.284,9.779s2.672,6.539,2.111,8.79a18.742,18.742,0,0,0-.568,4.086s5.978,14.279,5.345,18.429,1.967,10.693,1.967,10.693S826.2,466.913,825.5,468.179Z" transform="translate(-556.508 -289.661)" fill="#464353"/>
          <path id="Path_105" data-name="Path 105" d="M852.05,510.5l9.25-1.234S856.06,514.618,852.05,510.5Z" transform="translate(-600.434 -368.628)" opacity="0.05"/>
          <path id="Path_106" data-name="Path 106" d="M871.047,484.14s.316,3.273-1.687,4.5C869.36,488.643,872.946,488.082,871.047,484.14Z" transform="translate(-611.518 -352.536)" opacity="0.1"/>
          <path id="Path_107" data-name="Path 107" d="M853,455.2s-7.733,6.366-10.545,5.837S853,455.2,853,455.2Z" transform="translate(-594.042 -334.005)" opacity="0.1"/>
          <path id="Path_108" data-name="Path 108" d="M809.393,521s-5.873,1.334-6.049,3.694S809.393,521,809.393,521Z" transform="translate(-569.243 -376.139)" opacity="0.1"/>
          <path id="Path_109" data-name="Path 109" d="M812.432,602.56s-8.3,1.547-5.942,2.6a40.311,40.311,0,0,0,6.226,1.9S815.4,607.2,812.432,602.56Z" transform="translate(-570.991 -428.365)" opacity="0.05"/>
          <g id="Group_1" data-name="Group 1" transform="translate(226.943 99.234)" opacity="0.05">
            <path id="Path_110" data-name="Path 110" d="M800.679,612.311a1.636,1.636,0,0,1-.759-1.2l-.086.147s-.773,1.9.565,2.741c.151.1.3.194.432.288.248-.047.515-.083.77-.147C802.733,613.858,802.017,613.156,800.679,612.311Z" transform="translate(-793.799 -533.074)"/>
            <path id="Path_111" data-name="Path 111" d="M831.608,610.319c.23-.209.223-.748.083-1.439a4.046,4.046,0,0,0-.471,2.036A1.755,1.755,0,0,1,831.608,610.319Z" transform="translate(-814.038 -531.646)"/>
            <path id="Path_112" data-name="Path 112" d="M827.751,515.59a9.594,9.594,0,0,0-.561,2.586,10.4,10.4,0,0,1,.644-1.777Z" transform="translate(-811.458 -471.909)"/>
            <path id="Path_113" data-name="Path 113" d="M881.314,503.96a3.283,3.283,0,0,0,.076-.77c-.1.525-.176,1.011-.23,1.439C881.207,504.409,881.257,504.2,881.314,503.96Z" transform="translate(-846.017 -463.969)"/>
            <path id="Path_114" data-name="Path 114" d="M827.848,582.334a4.506,4.506,0,0,0,.209-1.564,5.308,5.308,0,0,0-.406,1.975A1.889,1.889,0,0,1,827.848,582.334Z" transform="translate(-811.752 -513.646)"/>
            <path id="Path_115" data-name="Path 115" d="M811.477,622a27.921,27.921,0,0,0-.967,4.316L802,627.3a17.688,17.688,0,0,1-1.9-3.6,6.455,6.455,0,0,1-.241-.619c-.511.234-.719.763-.043,2.306a17.98,17.98,0,0,0,1.906,3.6l8.506-.985s.633-4.431,1.475-5.276C812.135,622.316,811.869,622.1,811.477,622Z" transform="translate(-793.656 -540.047)"/>
            <path id="Path_116" data-name="Path 116" d="M790.049,463.461s.068,4.852.773,5.132h0c.36-.8.594-1.564.277-1.69-.719-.28-.773-5.136-.773-5.136s-1.406-5.755-1.054-7.316-1.125-5.273-1.125-5.273l-.493-4.431a12.192,12.192,0,0,1-1.547-8.373v-6.834s-1.971-13.221-2.252-19.9c-.18-4.28-.129-10.121-.072-13.764,0-.658.022-1.241.032-1.734l-.241.025s-.04,1.352-.072,3.4c-.057,3.643-.112,9.484.072,13.761.28,6.683,2.248,19.907,2.248,19.907v6.834a12.2,12.2,0,0,0,1.55,8.369l.489,4.431s1.478,3.726,1.126,5.276S790.049,463.461,790.049,463.461Z" transform="translate(-783.448 -394.14)"/>
            <path id="Path_117" data-name="Path 117" d="M868.427,625.511a8.226,8.226,0,0,1-1.349-3.341c-.867.784.13,3.827,1.079,5.035.982,1.266,8.3,2.039,9.711-.284v-1.338C875.951,627.464,869.355,626.709,868.427,625.511Z" transform="translate(-836.787 -540.156)"/>
            <path id="Path_118" data-name="Path 118" d="M899.386,609.277a14.235,14.235,0,0,0-.986,2.111v1a14.828,14.828,0,0,1,.719-1.41,4.316,4.316,0,0,0,.31-1.744A.622.622,0,0,0,899.386,609.277Z" transform="translate(-857.056 -531.87)"/>
            <path id="Path_119" data-name="Path 119" d="M865.447,593.944a13.9,13.9,0,0,0,.694-1.672s-1.2.28-3.1-1.971c-1.381-1.636-1.46-4.729-1.262-6.751-.36,1.2-.917,6.19.982,8.441A5.009,5.009,0,0,0,865.447,593.944Z" transform="translate(-833.375 -515.426)"/>
            <path id="Path_120" data-name="Path 120" d="M840.3,500.2a37.457,37.457,0,0,1,.14,4.169,5.672,5.672,0,0,1,.144-.651c.36-1.2,0-5.2,0-5.2s.072-2.816-.493-3.73-1.741-6.122-1.741-6.122a4.14,4.14,0,0,0-.985-2.672c-.985-.914-1.619-4.5-1.619-4.5a4.629,4.629,0,0,1-.719-3.025,6.124,6.124,0,0,0-1.194-3.658l-2.392-7.6-2.252-5.7-1.27,3.309s0,.417-.043,1.079l1.029-2.687,2.252,5.686,2.392,7.6a6.125,6.125,0,0,1,1.194,3.658,4.629,4.629,0,0,0,.719,3.025s.633,3.6,1.618,4.5a4.116,4.116,0,0,1,.982,2.672,46.265,46.265,0,0,0,1.759,6.114C840.385,497.376,840.3,500.2,840.3,500.2Z" transform="translate(-811.9 -437.28)"/>
          </g>
          <path id="Path_121" data-name="Path 121" d="M866.533,197.485,866,200.053l.032,1.144.022.842-2.935.3-.327-.608h0a27.239,27.239,0,0,0-2.277-3.683c-.543-.453-1.51-7.6-.359-7.172a3.069,3.069,0,0,1,1.633,1.478S867.573,193.018,866.533,197.485Z" transform="translate(-605.282 -164.737)" fill="#ffcdd3"/>
          <path id="Path_122" data-name="Path 122" d="M871.712,219.83l-2.935.3-.327-.608h0a2.587,2.587,0,0,1,3.237-.532Z" transform="translate(-610.935 -182.529)" opacity="0.1"/>
          <path id="Path_123" data-name="Path 123" d="M872.152,221.7l-3.87.9-.083-.575-.219-1.55a2.663,2.663,0,0,1,3.747-.511l.194.788Z" transform="translate(-610.635 -183.004)" fill="#dd4f05"/>
          <path id="Path_124" data-name="Path 124" d="M688.678,188.081l-4.132,2.216-.36-.777c-.392-.824-.978-2.064-1.14-2.518-.244-.683-1.967-1.547-1.967-1.547-4.316-4.133.827-7.686.827-7.686,2.726-5.485,5.755,1.863,5.755,1.863s.424,3.874.126,4.133-.3,1.32-.3,1.32a16.231,16.231,0,0,1,1,2.363C688.61,187.84,688.678,188.081,688.678,188.081Z" transform="translate(-489.85 -155.053)" fill="#ffcdd3"/>
          <path id="Path_125" data-name="Path 125" d="M697.282,208.9l-4.132,2.215-.36-.777c.583-.489,2.651-2.158,3.331-2.09a4.981,4.981,0,0,0,.978.025C697.214,208.656,697.282,208.9,697.282,208.9Z" transform="translate(-498.454 -175.87)" opacity="0.1"/>
          <path id="Path_126" data-name="Path 126" d="M697.9,210.65l-4.643,2.287-.094-1-.065-.691s2.69-2.305,3.485-2.216a4.225,4.225,0,0,0,1.212,0l.054.834Z" transform="translate(-498.652 -176.374)" fill="#dd4f05"/>
          <path id="Path_127" data-name="Path 127" d="M817.409,228.777s-20.241,2.284-16.458,1.054c2.633-.86,3.68-2.518,3.9-4.388a10.542,10.542,0,0,0-.752-4.676,20.392,20.392,0,0,0-1.8-3.658s15.465-8.51,12.376-.773A12.478,12.478,0,0,0,813.8,220a10.351,10.351,0,0,0,.4,3.712A11.054,11.054,0,0,0,817.409,228.777Z" transform="translate(-567.411 -178.971)" fill="#ffcdd3"/>
          <path id="Path_128" data-name="Path 128" d="M817.905,216.306a12.471,12.471,0,0,0-.878,3.665c-1.457,1.226-3.054,1.144-5.107,1.144-1.575,0-3.323.381-4.582-.378a20.393,20.393,0,0,0-1.8-3.658S821,208.57,817.905,216.306Z" transform="translate(-570.652 -178.951)" opacity="0.1"/>
          <ellipse id="Ellipse_17" data-name="Ellipse 17" cx="8.369" cy="8.369" rx="8.369" ry="8.369" transform="translate(232.626 25.964)" fill="#ffcdd3"/>
          <path id="Path_129" data-name="Path 129" d="M817.409,246.12s-20.241,2.284-16.458,1.054c2.633-.86,3.68-2.518,3.9-4.388a11.29,11.29,0,0,1,4.316-2.3,6.057,6.057,0,0,1,3.669-.061,5.213,5.213,0,0,1,1.334.619A11.054,11.054,0,0,0,817.409,246.12Z" transform="translate(-567.411 -196.314)" opacity="0.1"/>
          <path id="Path_130" data-name="Path 130" d="M872.543,223.871l-3.87.9-.083-.575a3.424,3.424,0,0,1,3.723-1.273Z" transform="translate(-611.025 -185.179)" opacity="0.1"/>
          <path id="Path_131" data-name="Path 131" d="M698.016,212.134l-4.643,2.287-.094-1a33.866,33.866,0,0,1,4.676-2.075Z" transform="translate(-498.767 -177.858)" opacity="0.1"/>
          <path id="Path_132" data-name="Path 132" d="M814.606,390.484c-7.844,1.252-18.994,2.848-20.763,2.309-1.471-.446-6.161-.4-10.243-.259.036-2.043.072-3.4.072-3.4l30.384-3.165A25.4,25.4,0,0,0,814.606,390.484Z" transform="translate(-556.603 -289.674)" opacity="0.1"/>
          <path id="Path_133" data-name="Path 133" d="M762.422,277.319s-25.813,4.431-28.582,3.6-16.994.068-16.994.068c-6.4,4.291-3.73-2.039-3.73-2.039a15.74,15.74,0,0,1,.212-5.978,36.469,36.469,0,0,0,1.061-5.985s-.14-4.222.633-5.208,1.69-8.017,1.69-8.017.7-4.784.633-5.837.209-4.01.209-4.01l.917-4.924c-5.276-.7-21.314-10.549-21.314-10.549-.773-3.305-6.751-11.042-6.751-11.042a8.137,8.137,0,0,0-.493-1.9c-.421-1.126,5.909-3.377,5.909-3.377s4.711,5.755,5.7,7.316a31.382,31.382,0,0,0,4.359,4.431,3.392,3.392,0,0,1,1.547.2l.083.025h0a12.54,12.54,0,0,1,3.147,1.8,6.114,6.114,0,0,1,4.291,1.619s2.877-.424,3.377.068,2.953,0,2.953,0,2.461-5.2,4.079-3.694,8.484,1.439,8.484,1.439c.914-1.216,3.14-2.086,4.532-2.518a6.082,6.082,0,0,1,3.669-.061,4.652,4.652,0,0,1,1.439.719l4.176,4.079s1.194-1.55,1.054-1.9,1.406-.633,1.406-.633,2.039-.633,2.813-.845,1.482.626,1.546.7a8.41,8.41,0,0,1-.36-3.093,3.655,3.655,0,0,0-.845-2.518c2.46-6.049,8.017-.985,8.017-.985s.633,3.305.072,4.571.561,3.938.421,4.643.284,1.9.284,3.237a19.783,19.783,0,0,1-1.125,4.992c-.406,1.126-3.8,3.658-3.8,3.658s-.212,4.01-1.69,6.33-.55,10.254-.55,10.254,1.407,6.19,3.165,8.161S762.422,277.319,762.422,277.319Z" transform="translate(-496.599 -178.351)" fill="#3f3d56"/>
          <path id="Path_134" data-name="Path 134" d="M780.667,257.068s-.773-2.32-1.478-2.518a16.271,16.271,0,0,1-2.039-.914l.453-.867s2.64.719,3.064,1.5S780.667,257.068,780.667,257.068Z" transform="translate(-552.473 -204.381)" opacity="0.1"/>
          <path id="Path_135" data-name="Path 135" d="M736.222,247.178c-.14.719-6.4,1.334-6.4,1.334l3.165-3.172h0l.079.029h0A12.536,12.536,0,0,1,736.222,247.178Z" transform="translate(-522.166 -199.623)" opacity="0.1"/>
          <circle id="Ellipse_18" data-name="Ellipse 18" cx="0.561" cy="0.561" r="0.561" transform="translate(195.383 37.34)" fill="#575988"/>
          <circle id="Ellipse_19" data-name="Ellipse 19" cx="0.561" cy="0.561" r="0.561" transform="translate(196.102 38.466)" fill="#575988"/>
          <circle id="Ellipse_20" data-name="Ellipse 20" cx="0.561" cy="0.561" r="0.561" transform="translate(196.807 39.505)" fill="#575988"/>
          <circle id="Ellipse_21" data-name="Ellipse 21" cx="0.561" cy="0.561" r="0.561" transform="translate(197.544 40.627)" fill="#575988"/>
          <ellipse id="Ellipse_22" data-name="Ellipse 22" cx="0.457" cy="0.457" rx="0.457" ry="0.457" transform="translate(263.949 40.671)" fill="#575988"/>
          <ellipse id="Ellipse_23" data-name="Ellipse 23" cx="0.457" cy="0.457" rx="0.457" ry="0.457" transform="translate(264.021 41.71)" fill="#575988"/>
          <ellipse id="Ellipse_24" data-name="Ellipse 24" cx="0.457" cy="0.457" rx="0.457" ry="0.457" transform="translate(264.082 42.746)" fill="#575988"/>
          <path id="Path_136" data-name="Path 136" d="M787,317.72c-.068-.083,15.789,19.94,28.1,8.369C815.107,326.092,795.66,328.729,787,317.72Z" transform="translate(-558.78 -245.971)" opacity="0.1"/>
          <path id="Path_137" data-name="Path 137" d="M761.7,346.66s9.488.259,10.48,2.989v2.841a1.82,1.82,0,0,1-1.766,0c-.957-.518-6.693-3.431-8.715-2.028Z" transform="translate(-542.579 -264.502)" opacity="0.1"/>
          <path id="Path_138" data-name="Path 138" d="M762.19,346.66s9.074.248,10.024,2.852v2.7a1.74,1.74,0,0,1-1.69,0c-.914-.489-6.4-3.269-8.334-1.931Z" transform="translate(-542.893 -264.502)" fill="#3f3d56"/>
          <path id="Path_139" data-name="Path 139" d="M776.1,289.38a30.52,30.52,0,0,0,3.679,6.312,24.77,24.77,0,0,0,5.755,5.564S776.258,290.682,776.1,289.38Z" transform="translate(-551.8 -227.824)" opacity="0.1"/>
          <path id="Path_140" data-name="Path 140" d="M767.47,258.73s1.583,6.834,5.661,9.153Z" transform="translate(-546.274 -208.197)" opacity="0.1"/>
          <path id="Path_141" data-name="Path 141" d="M760.468,260.646c-.04-.126-1.406,5.4,5.258,8.463C765.727,269.109,762.9,268.149,760.468,260.646Z" transform="translate(-541.7 -209.423)" opacity="0.1"/>
          <path id="Path_142" data-name="Path 142" d="M875.905,247.9a47.421,47.421,0,0,1,4.212,3.165S877.909,247.758,875.905,247.9Z" transform="translate(-615.708 -201.261)" opacity="0.1"/>
          <path id="Path_143" data-name="Path 143" d="M803.838,201.148a1.32,1.32,0,0,0,1.439,1.306c2.55.158,5.208.27,7.553-.719a2.88,2.88,0,0,0,1.151-.762,4.73,4.73,0,0,0,.669-1.852,26.926,26.926,0,0,1,1.543-3.553,11.907,11.907,0,0,0,.831-6.384,4.315,4.315,0,0,0-.64-1.867c-.676-.967-1.91-1.359-2.805-2.129s-1.471-1.946-2.518-2.518a4.834,4.834,0,0,0-3.158-.281,16.576,16.576,0,0,0-5.891,2.212,3.006,3.006,0,0,1-1.971.669,2.636,2.636,0,0,1-1.439-1.111,7.79,7.79,0,0,0-.6,3.651,1.569,1.569,0,0,1-.018.55,1.656,1.656,0,0,1-.392.579,2.13,2.13,0,0,0-.4,2.629c.27.32.687.5.95.824.471.586.313,1.439.3,2.187a1.126,1.126,0,0,0,.187.741,1.079,1.079,0,0,0,1.032.248,2.811,2.811,0,0,1,1.1-.1,1.845,1.845,0,0,1,.957.719A13.514,13.514,0,0,1,803.838,201.148Z" transform="translate(-565.105 -159.229)" fill="#2d293d"/>
          <g id="Group_2" data-name="Group 2" transform="translate(231.772 24.853)" opacity="0.1">
            <path id="Path_144" data-name="Path 144" d="M814.279,212.785a2.878,2.878,0,0,1-1.151.762c-2.359.982-5.014.87-7.553.719a1.323,1.323,0,0,1-1.442-1.309A13.127,13.127,0,0,0,802,208.008a1.85,1.85,0,0,0-.957-.737,2.951,2.951,0,0,0-1.1.1,1.079,1.079,0,0,1-1.032-.244,1.125,1.125,0,0,1-.187-.741c0-.755.169-1.6-.3-2.187-.262-.327-.68-.5-.949-.827a1.639,1.639,0,0,1-.162-1.676,1.917,1.917,0,0,0-.119,2.241c.27.32.687.5.95.824.471.59.313,1.439.3,2.187a1.118,1.118,0,0,0,.183.741,1.079,1.079,0,0,0,1.036.248,2.806,2.806,0,0,1,1.1-.1,1.845,1.845,0,0,1,.957.719,13.143,13.143,0,0,1,2.133,4.953,1.8,1.8,0,0,0,.622,1.14,1.745,1.745,0,0,0,.791.173c2.55.158,5.208.273,7.553-.719a2.848,2.848,0,0,0,1.151-.763,2.206,2.206,0,0,0,.36-.676A.179.179,0,0,1,814.279,212.785Z" transform="translate(-796.877 -196.532)"/>
            <path id="Path_145" data-name="Path 145" d="M799.958,191.387a1.234,1.234,0,0,0,.255-.424,1.572,1.572,0,0,0,0-.55,7.8,7.8,0,0,1,.392-3.028l-.047-.054a7.733,7.733,0,0,0-.6,3.647A2.583,2.583,0,0,1,799.958,191.387Z" transform="translate(-798.835 -187.33)"/>
          </g>
          <path id="Path_146" data-name="Path 146" d="M812.08,248.553s10.455,1.388,11.394-.183" transform="translate(-574.84 -201.564)" opacity="0.1"/>
          <path id="Path_147" data-name="Path 147" d="M868.59,236.85s5.812,0,7.089,2.187" transform="translate(-611.025 -194.187)" opacity="0.1"/>
          <path id="Path_148" data-name="Path 148" d="M945.316,768.041a9.218,9.218,0,0,1-6.276,2.345c-.59,0-1.406.111-1.41.7a.988.988,0,0,0,.172.482,5.773,5.773,0,0,0,3.237,2.543,11.439,11.439,0,0,0,3.917.248l3.83-.2c.719-.04,1.439-.075,2.158-.165s1.5-.237,2.255-.36a29.5,29.5,0,0,1,5.578-.259,1.69,1.69,0,0,0,1.374-.36c.295-.36.144-1.047.032-1.586-.23-1.111,0-2.277-.212-3.392a5.956,5.956,0,0,0-3.91-4.165c-1.726-.655-4.783-1.406-6.416-.313C947.924,764.71,946.87,766.627,945.316,768.041Z" transform="translate(-655.234 -531.106)" fill="#3f3d56"/>
          <path id="Path_149" data-name="Path 149" d="M955.886,580.523c.338,1.608,1.9,2.838,1.938,4.478.039,1.316-.9,2.421-1.575,3.546a23.627,23.627,0,0,0-1.608,3.64,55.591,55.591,0,0,1-4.719,9.387c-.9,1.439-1.906,2.975-1.7,4.647a6.966,6.966,0,0,0,.816,2.223l2.7,5.359a15.531,15.531,0,0,1,1.377,3.385c.234,1.018.255,2.072.392,3.107.425,3.287,1.967,6.6,1.054,9.783-.079.273-.36.6-.579.414a10.248,10.248,0,0,1,1.539,5.229,7.3,7.3,0,0,0,.025,2.942,3.223,3.223,0,0,1,.421,1.158,7.331,7.331,0,0,1-.155.795,1.753,1.753,0,0,0,1.345,1.633c.723.241,1.511.223,2.241.442,1.4.421,2.406,1.629,3.6,2.467a7.658,7.658,0,0,0,4.143,1.349,1.045,1.045,0,0,0,.611-.122.989.989,0,0,0,.338-.741,4.115,4.115,0,0,0-1.482-3.575,1.623,1.623,0,0,1-.551-.575,1.39,1.39,0,0,1-.05-.644,48.5,48.5,0,0,0-.158-8.848,13.439,13.439,0,0,1-.141-2.816,11.5,11.5,0,0,0,.227-2.341,12.4,12.4,0,0,0-.719-2.244,16.179,16.179,0,0,1-.359-4.176,36.63,36.63,0,0,0-1.184-7.193,5.438,5.438,0,0,0-1.119-2.6c-.561-.586-1.467-1.147-1.255-1.928a2.28,2.28,0,0,1,.514-.766,3.076,3.076,0,0,0,.64-2.345,1.054,1.054,0,0,0,1.212-.568,18.962,18.962,0,0,0,9.488-10.79,3.565,3.565,0,0,1,.425-.964,4.345,4.345,0,0,1,1.737-1.126c1.964-.989,3.32-2.841,4.564-4.654a8.223,8.223,0,0,0,2-5.809l.112-4.226a2.283,2.283,0,0,0-.079-.827,2.067,2.067,0,0,0-.457-.669,8.124,8.124,0,0,0-4.481-2.417c-1.151-.2-2.327-.165-3.492-.262-2.259-.187-4.489-.888-6.747-.719a10.8,10.8,0,0,0-8.384,5.866C957.764,579.538,957.145,580.5,955.886,580.523Z" transform="translate(-662 -409.14)" fill="#464353"/>
          <path id="Path_150" data-name="Path 150" d="M907.8,501.724a4.728,4.728,0,0,1-.259,1.924,1.344,1.344,0,0,1-1.579.809c.183-.414-.3-.885-.755-.834a1.413,1.413,0,0,0-1,.856,3.185,3.185,0,0,0-.288,1.953,7.926,7.926,0,0,1,.5,2.453c-.1.691-.608,1.378-.338,2.018a3.264,3.264,0,0,0,.651.78,2.2,2.2,0,0,1-.234,3.021l6.8.137a4.806,4.806,0,0,0,.845,3.309A20.861,20.861,0,0,0,927.7,528.3a1.352,1.352,0,0,0-.327,2.068,1.921,1.921,0,0,0,2.187.126,15.593,15.593,0,0,0,1.87-1.4,5.754,5.754,0,0,1,3.845-1.036c.852.083,1.68.36,2.536.4,2.517.133,4.676-1.68,7.1-2.42,1.766-.543,3.769-.543,5.251-1.647a2.093,2.093,0,0,0,.979-2.025,3.382,3.382,0,0,0-.719-1.19,20.583,20.583,0,0,1-1.967-3.687,22.054,22.054,0,0,0-4.917-6.589,43.97,43.97,0,0,0-4.877-3.7,8.308,8.308,0,0,0-1.316-.795,14.75,14.75,0,0,1-1.8-.719,9.6,9.6,0,0,1-1.874-2.108c-1.348-1.575-3.42-2.3-5.082-3.535-1.115-.831-2.1-1.924-3.431-2.323-.647-.2-1.334-.212-1.982-.406-1.471-.446-2.543-1.751-3.985-2.28a15.992,15.992,0,0,0-3.6-.457,8.42,8.42,0,0,1-3.759-1.431,4.463,4.463,0,0,0-1.2-.7c-1.824-.554-1.971,2.841-2.158,4.017A38.734,38.734,0,0,0,907.8,501.724Z" transform="translate(-633.619 -357.82)" fill="#dd4f05"/>
          <path id="Path_151" data-name="Path 151" d="M874.844,540.131c.306,3.316-2.2,6.528-1.468,9.775.155.691.453,1.349.561,2.05.306,1.924-.845,3.748-1.942,5.359l-9.423,13.829a8.7,8.7,0,0,1-1.345,1.662c-1.8,1.6-4.5,1.439-6.87,1.913a11.87,11.87,0,0,0-4.6,2.036.3.3,0,0,0-.057.414,3.957,3.957,0,0,0,3.42,1.608c.248.324,0,.805-.342,1.04-.5.359-1.2.442-1.3,1.3a1.437,1.437,0,0,0,.173.863,2.686,2.686,0,0,0,1.647,1.144c3.262,1,6.787-.755,9.229-3.14s4.194-5.395,6.589-7.819c1.327-1.345,2.834-2.493,4.2-3.795a48.053,48.053,0,0,0,6.891-8.916,9.861,9.861,0,0,0,1.493-3.035c.255-1.1.137-2.223.428-3.291a12.094,12.094,0,0,1,2.259-3.69,12.2,12.2,0,0,0,2.568-7.956,7.626,7.626,0,0,0-4.654-6.6,4.184,4.184,0,0,0-2.608-.158,6.177,6.177,0,0,0-2.654,2.115l-1.8,2.064a4.821,4.821,0,0,0-1.011,1.586,1.658,1.658,0,0,0,.36,1.762" transform="translate(-598.889 -384.84)" fill="#fbbebe"/>
          <path id="Path_152" data-name="Path 152" d="M922.152,511.965a5.154,5.154,0,0,0-3.474,1.079,4.934,4.934,0,0,0-.878,1.374,13.682,13.682,0,0,0-1.737,5.467,25.016,25.016,0,0,0,.63,4.568c.194,1.266-.3,2.557-.392,3.838a26.663,26.663,0,0,0,4.956-1.906,16.585,16.585,0,0,1,2.9-1.507c1.478-.493,3.956.359,5.362,1.043.076-.986-.665-2.7-.586-3.694a4.126,4.126,0,0,1,.219-1.223,7.41,7.41,0,0,1,.745-1.183,4.841,4.841,0,0,0-.435-5.672,7.9,7.9,0,0,0-5.064-2.158,21.913,21.913,0,0,0-3.535-.122" transform="translate(-641.421 -370.276)" fill="#dd4f05"/>
        </g>
        <g id="undraw_coming_home_52ir" transform="translate(118.577 0)">
          <ellipse id="Ellipse_9" data-name="Ellipse 9" cx="23.779" cy="23.779" rx="23.779" ry="23.779" transform="translate(132.864 6.606)" fill="#ff6584"/>
          <path id="Path_32" data-name="Path 32" d="M214.343,777.169a8.811,8.811,0,0,0,3.282,4.439,7.586,7.586,0,0,0-2.686-9.928A8.812,8.812,0,0,0,214.343,777.169Z" transform="translate(-160.147 -479.125)" fill="#3f3d56"/>
          <path id="Path_33" data-name="Path 33" d="M210.589,780.113a8.811,8.811,0,0,1,2.284,5.026,7.586,7.586,0,0,1-7.369-7.174A8.813,8.813,0,0,1,210.589,780.113Z" transform="translate(-155.303 -482.658)" fill="#dd4f05"/>
          <path id="Path_34" data-name="Path 34" d="M343.343,777.169a8.811,8.811,0,0,0,3.282,4.439,7.586,7.586,0,0,0-2.686-9.928A8.812,8.812,0,0,0,343.343,777.169Z" transform="translate(-232.671 -479.125)" fill="#3f3d56"/>
          <path id="Path_35" data-name="Path 35" d="M339.589,780.113a8.812,8.812,0,0,1,2.284,5.026,7.586,7.586,0,0,1-7.369-7.174A8.813,8.813,0,0,1,339.589,780.113Z" transform="translate(-227.827 -482.658)" fill="#dd4f05"/>
          <path id="Path_36" data-name="Path 36" d="M326.228,115.391l-8.942-7.154,50.073-44.708H494.33v39.343L412.067,158.31Z" transform="translate(-204.356 -35.716)" fill="#3f3d56"/>
          <path id="Path_37" data-name="Path 37" d="M639.3,88.608V64.422H622.438v5.923l-6.292-6.816-41.132,44.708-16.095,10.73L533.964,301.3,571.6,338.932h87.466V110.025Z" transform="translate(-326.172 -35.716)" fill="#ccc"/>
          <rect id="Rectangle_16" data-name="Rectangle 16" width="135.913" height="230.694" transform="translate(112.93 72.521)" fill="#f2f2f2"/>
          <rect id="Rectangle_17" data-name="Rectangle 17" width="25.037" height="56.333" transform="translate(165.685 246.883)" fill="#ccc"/>
          <path id="Path_38" data-name="Path 38" d="M362.737,589.195v-8.942h-10.73v8.942h10.73Z" transform="translate(-223.876 -326.216)" fill="#3f3d56"/>
          <path id="Path_39" data-name="Path 39" d="M361.843,617.016h-9.836v8.941h10.73v-8.941Z" transform="translate(-223.876 -346.884)" fill="#3f3d56"/>
          <rect id="Rectangle_18" data-name="Rectangle 18" width="10.73" height="8.942" transform="translate(146.014 254.037)" fill="#3f3d56"/>
          <rect id="Rectangle_19" data-name="Rectangle 19" width="10.73" height="8.942" transform="translate(146.014 270.132)" fill="#3f3d56"/>
          <path id="Path_40" data-name="Path 40" d="M530.213,589.195v-8.942h-10.73v8.942h10.73Z" transform="translate(-318.031 -326.216)" fill="#3f3d56"/>
          <path id="Path_41" data-name="Path 41" d="M529.319,617.016h-9.836v8.941h10.73v-8.941Z" transform="translate(-318.031 -346.884)" fill="#3f3d56"/>
          <rect id="Rectangle_20" data-name="Rectangle 20" width="10.73" height="8.942" transform="translate(219.335 254.037)" fill="#3f3d56"/>
          <rect id="Rectangle_21" data-name="Rectangle 21" width="10.73" height="8.942" transform="translate(219.335 270.132)" fill="#3f3d56"/>
          <path id="Path_42" data-name="Path 42" d="M701.773,180.717v-8.941h-10.73v8.941h10.73Z" transform="translate(-414.481 -96.572)" fill="#3f3d56"/>
          <path id="Path_43" data-name="Path 43" d="M700.879,208.539h-9.836v8.941h10.73v-8.941Z" transform="translate(-414.481 -117.24)" fill="#3f3d56"/>
          <rect id="Rectangle_22" data-name="Rectangle 22" width="10.73" height="8.942" transform="translate(294.445 75.204)" fill="#3f3d56"/>
          <rect id="Rectangle_23" data-name="Rectangle 23" width="10.73" height="8.942" transform="translate(294.445 91.299)" fill="#3f3d56"/>
          <path id="Path_44" data-name="Path 44" d="M701.773,295.091v-8.942h-10.73v8.942h10.73Z" transform="translate(-414.481 -160.872)" fill="#3f3d56"/>
          <path id="Path_45" data-name="Path 45" d="M700.879,322.912h-9.836v8.942h10.73v-8.942Z" transform="translate(-414.481 -181.54)" fill="#3f3d56"/>
          <rect id="Rectangle_24" data-name="Rectangle 24" width="10.73" height="8.942" transform="translate(294.445 125.277)" fill="#3f3d56"/>
          <rect id="Rectangle_25" data-name="Rectangle 25" width="10.73" height="8.942" transform="translate(294.445 141.372)" fill="#3f3d56"/>
          <path id="Path_46" data-name="Path 46" d="M701.773,409.465v-8.942h-10.73v8.942h10.73Z" transform="translate(-414.481 -225.173)" fill="#3f3d56"/>
          <path id="Path_47" data-name="Path 47" d="M700.879,437.286h-9.836v8.942h10.73v-8.942Z" transform="translate(-414.481 -245.841)" fill="#3f3d56"/>
          <rect id="Rectangle_26" data-name="Rectangle 26" width="10.73" height="8.942" transform="translate(294.445 175.35)" fill="#3f3d56"/>
          <rect id="Rectangle_27" data-name="Rectangle 27" width="10.73" height="8.942" transform="translate(294.445 191.445)" fill="#3f3d56"/>
          <path id="Path_48" data-name="Path 48" d="M701.773,523.838V514.9h-10.73v8.941h10.73Z" transform="translate(-414.481 -289.474)" fill="#3f3d56"/>
          <path id="Path_49" data-name="Path 49" d="M700.879,551.66h-9.836V560.6h10.73V551.66Z" transform="translate(-414.481 -310.141)" fill="#3f3d56"/>
          <rect id="Rectangle_28" data-name="Rectangle 28" width="10.73" height="8.942" transform="translate(294.445 225.424)" fill="#3f3d56"/>
          <rect id="Rectangle_29" data-name="Rectangle 29" width="10.73" height="8.942" transform="translate(294.445 241.519)" fill="#3f3d56"/>
          <rect id="Rectangle_30" data-name="Rectangle 30" width="103.723" height="21.46" transform="translate(128.131 84.145)" fill="#3f3d56"/>
          <rect id="Rectangle_31" data-name="Rectangle 31" width="103.723" height="21.46" transform="translate(128.131 127.065)" fill="#3f3d56"/>
          <rect id="Rectangle_32" data-name="Rectangle 32" width="103.723" height="21.46" transform="translate(128.131 169.986)" fill="#3f3d56"/>
          <rect id="Rectangle_33" data-name="Rectangle 33" width="103.723" height="21.46" transform="translate(128.131 212.905)" fill="#3f3d56"/>
          <rect id="Rectangle_35" data-name="Rectangle 35" width="2.572" height="101.593" transform="translate(57.381 201.221)" fill="#3f3d56"/>
          <path id="Path_50" data-name="Path 50" d="M217.465,510.18c.164,35.525-24.83,64.439-24.83,64.439s-25.259-28.683-25.423-64.207,24.83-64.439,24.83-64.439S217.3,474.656,217.465,510.18Z" transform="translate(-133.776 -296.013)" fill="#dd4f05"/>
          <path id="Path_51" data-name="Path 51" d="M217.465,510.18c.164,35.525-24.83,64.439-24.83,64.439s-25.259-28.683-25.423-64.207,24.83-64.439,24.83-64.439S217.3,474.656,217.465,510.18Z" transform="translate(-133.776 -296.013)" opacity="0.1"/>
          <rect id="Rectangle_36" data-name="Rectangle 36" width="2.572" height="101.593" transform="translate(23.945 201.221)" fill="#3f3d56"/>
          <path id="Path_52" data-name="Path 52" d="M141.093,510.18c.164,35.525-24.83,64.439-24.83,64.439S91,545.936,90.84,510.412s24.83-64.439,24.83-64.439S140.929,474.656,141.093,510.18Z" transform="translate(-90.84 -296.013)" fill="#dd4f05"/>
          <path id="Path_53" data-name="Path 53" d="M929.862,245.534c-20.26.093-36.751.393-36.751.393s19.6-25.965,36.677-16.345,36.691,16.007,36.691,16.007S950.121,245.441,929.862,245.534Z" transform="translate(-541.874 -173.156)" fill="#f2f2f2"/>
          <path id="Path_54" data-name="Path 54" d="M158.862,359.534c-20.26.093-36.751.393-36.751.393s19.6-25.965,36.677-16.345,36.691,16.007,36.691,16.007S179.122,359.44,158.862,359.534Z" transform="translate(-108.42 -237.247)" fill="#f2f2f2"/>
          <path id="Path_55" data-name="Path 55" d="M326.862,121.534c-20.26.093-36.751.393-36.751.393s19.6-25.965,36.677-16.345,36.691,16.007,36.691,16.007S347.121,121.441,326.862,121.534Z" transform="translate(-202.869 -103.444)" fill="#f2f2f2"/>
          <path id="Path_57" data-name="Path 57" d="M807.426,539.583h25.957v-6.265H847.7v6.265h26.852v27.747H847.7v34.907H833.383V567.331H807.426L794,552.114Z" transform="translate(-472.364 -299.83)" fill="#3f3d56"/>
        </g>
        <g id="undraw_online_banking_7jy4" transform="translate(0 111.848)">
          <ellipse id="Ellipse_1" data-name="Ellipse 1" cx="2.444" cy="1.664" rx="2.444" ry="1.664" transform="translate(13.723 163.176)" fill="#dd4f05"/>
          <path id="Path_1" data-name="Path 1" d="M1040.059,709.26s-11.609,20.171-11.3,23.083" transform="translate(-1023.891 -544.42)" fill="#dd4f05"/>
          <path id="Path_3" data-name="Path 3" d="M756.44,172.842s.7-2.513,1.745-3.141v3.141a8.775,8.775,0,0,1,7.156,2.513l-2.793.628s4.1,1.361,4.974,7.225l-1.745-.838-4.712,10.052-2.967-5.445-5.934,6.073,1.4-3.351-2.269,1.047,1.571-2.723-6.981,3.141.524-1.675-2.558,4.286s-8.786-9.1.813-18.736C744.659,175.041,749.022,170.434,756.44,172.842Z" transform="translate(-663.19 -169.701)" fill="#2f2e41"/>
          <path id="Path_4" data-name="Path 4" d="M791.762,243.729s-2.6,9.887-1.821,11.187-7.545,8.326-7.545,8.326l-8.066-1.561-.521-11.188s7.285-6.244,5.724-10.927Z" transform="translate(-697.706 -218.222)" fill="#ffb9b9"/>
          <path id="Path_5" data-name="Path 5" d="M791.762,243.729s-2.6,9.887-1.821,11.187-7.545,8.326-7.545,8.326l-8.066-1.561-.521-11.188s7.285-6.244,5.724-10.927Z" transform="translate(-697.706 -218.222)" opacity="0.1"/>
          <path id="Path_6" data-name="Path 6" d="M797.521,457.578s2.081,13.009.52,23.676-2.342,18.472-1.561,20.033,1.561,1.3,1.041,3.122-1.561,1.041-.52,2.862.781,4.943.781,5.724,1.3,17.692,0,19.513-1.821,1.561-1.821,1.561l-1.561,9.366-8.326-1.3,1.3-8.585s-3.122-1.561-1.821-2.6,2.082-1.041,1.3-1.041-2.081-.26-1.041-.781.26-14.57.26-14.57-1.821-25.757-9.106-24.977-13.009,15.87-13.009,15.87l-2.081,6.765s-.781,12.748-1.3,13.789a1.51,1.51,0,0,0,0,1.822c.26.52,2.081-.781.26,1.3s-1.821,2.862-1.821,2.862l-1.171,13.659-8.456-5.333v-8.066s-1.561-2.6-1.041-4.683.52-11.968,0-13.789-.26-2.342.26-3.122,1.821-.26.781-2.081a12.69,12.69,0,0,1-.26-9.887c1.561-3.382,10.147-36.685,13.789-38.506S797.521,457.578,797.521,457.578Z" transform="translate(-696.701 -369.629)" fill="#2f2e41"/>
          <path id="Path_7" data-name="Path 7" d="M762.57,719.1s5.984-1.041,6.244.52a17.815,17.815,0,0,1,0,3.9s2.081.26,1.821,2.081-.52,6.765-.52,6.765,3.252,7.675,1.431,9.5c-.018.018-3.593-.13-5.647-.13h-7.491s-1.041-3.642,0-4.163,3.382-5.2,3.122-6.244,0-8.586,0-8.586l1.149.065Z" transform="translate(-673.198 -551.018)" fill="#3f3d56"/>
          <path id="Path_8" data-name="Path 8" d="M894.122,724.556l3.122,2.342s-1.3,4.423-.52,5.2,2.472,9.757.911,10.277-11.187-.26-11.187-.26-10.8.39-11.058-.13a3.61,3.61,0,0,1,2.342-4.683c3.122-1.041,4.943-.78,5.984-3.9A77.236,77.236,0,0,1,887.1,725.6l.52-5.724s3.122.52,3.642.52,3.122,1.3,2.862,2.342A3.538,3.538,0,0,0,894.122,724.556Z" transform="translate(-835.19 -551.791)" fill="#3f3d56"/>
          <ellipse id="Ellipse_2" data-name="Ellipse 2" cx="10.797" cy="10.797" rx="10.797" ry="10.797" transform="translate(78.835 7.165)" fill="#ffb9b9"/>
          <path id="Path_9" data-name="Path 9" d="M773.9,273.219,770,266.4s-9.106-.464-9.626.577-4.943,52.555-4.943,52.555-2.082,2.862-.78,4.683l1.3,1.821v3.642a22.379,22.379,0,0,0,15.35,4.163c8.846-1.041,20.033-5.724,20.033-5.724l-2.341-14.57.26-42.929-5.242-2.555s-5.945,4.116-6.986,5.417S773.9,273.219,773.9,273.219Z" transform="translate(-691.295 -236.785)" fill="#3f3d56"/>
          <path id="Path_10" data-name="Path 10" d="M730.781,273.287l1.171-6.895,16,11.317-8.846,26.017s5.464,9.887,4.423,13.529a62.991,62.991,0,0,0-1.561,9.106s-14.049,3.642-13.789,1.821,0-9.887,0-9.887S723.63,284.6,725.9,279.466,730.781,273.287,730.781,273.287Z" transform="translate(-639.067 -236.852)" fill="#d0cde1"/>
          <path id="Path_11" data-name="Path 11" d="M836.519,266.932l2.472-4.813c0-.151-17.561,2.278-18.342,3.773l2.081,40.067s-.26,5.724-1.561,7.285-1.041,4.163-.52,4.423,9.106,2.862,9.106,2.862,8.326-14.309,7.545-31.481S836.519,266.932,836.519,266.932Z" transform="translate(-759.115 -233.88)" fill="#d0cde1"/>
          <path id="Path_12" data-name="Path 12" d="M883.43,274l-2.755-.587a5.828,5.828,0,0,0-2.448,2.668c-.781,1.821-9.886,21.334-9.886,22.635s-.26,10.927,5.464,10.927,10.147-24.456,10.147-24.456Z" transform="translate(-818.774 -241.729)" fill="#d0cde1"/>
          <path id="Path_13" data-name="Path 13" d="M631.34,381.032l-4.683,7.025-2.6-8.846,1.821-2.6Z" transform="translate(-527.658 -281.375)" fill="#ffb9b9"/>
          <path id="Path_14" data-name="Path 14" d="M598.694,198.883l2.341-.26,5.724,30.7-9.886,30.7-8.586-6.5,5.984-20.554L592.19,217.1Z" transform="translate(-492.15 -157.765)" fill="#d0cde1"/>
          <path id="Path_15" data-name="Path 15" d="M757.967,198.032a11.837,11.837,0,0,1,11.2-9.015,11.4,11.4,0,0,1,9.337,5.028l-2.671,5.12-2.664-4.392-5.327,4.9,1.253-2.7-2.037.845,1.41-2.2-6.268,2.534.47-1.351-2.977,3.885A11.707,11.707,0,0,1,757.967,198.032Z" transform="translate(-679.607 -183.116)" fill="#2f2e41"/>
          <path id="Path_16" data-name="Path 16" d="M753.271,207.682l-7.01,6.112,3.628-7.933Z" transform="translate(-686.924 -162.792)" opacity="0.1"/>
          <path id="Path_17" data-name="Path 17" d="M810.219,268.329l.244-.1-1.319-3.312a.767.767,0,0,1,.429-1l7.477-2.977a.767.767,0,0,1,1,.429l6.132,15.4a.767.767,0,0,1-.429,1l-7.477,2.977a.767.767,0,0,1-1-.429l-3.163-7.946-.244.1Z" transform="translate(-740.957 -233.032)" fill="#2f2e41"/>
          <ellipse id="Ellipse_3" data-name="Ellipse 3" cx="1.313" cy="1.313" rx="1.313" ry="1.313" transform="translate(72.706 32.09)" fill="#dd4f05"/>
          <path id="Path_18" data-name="Path 18" d="M825.049,293.652s3.382-10.407,7.545-8.586-1.561,12.748-1.561,12.748l-3.642,2.342Z" transform="translate(-755.71 -249.673)" fill="#ffb9b9"/>
          <path id="Path_19" data-name="Path 19" d="M832.574,324.559l18.212-14.31,6.5,9.627s-17.172,18.212-21.074,14.57S832.574,324.559,832.574,324.559Z" transform="translate(-781.187 -267.311)" fill="#d0cde1"/>
          <path id="Path_30" data-name="Path 30" d="M1008.693,713.814v11.8c2.432-3.37,7.282-6.839,16.371-9.656l-16.371,22.488v.171l-.089-.049-.028.039s-.024-.031-.065-.092C1006.6,737.409,990.607,727.447,1008.693,713.814Z" transform="translate(-1000.162 -547.583)" fill="#3f3d56"/>
        </g>
      </g>
    </g>
  </g>
</svg>
